…
Often times you don't want to focus on a certain subset of your dataset. Using this diamonds dataset, for example, we may want to just examine the ideal cut or the diamonds below a certain price. The Filter function allows us to take out the subset of data we want.

``` r
ideals <- diamonds %>%
         filter(cut == "Ideal")
```

    ## Warning: package 'bindrcpp' was built under R version 3.4.4

``` r
ideals
```

    ## # A tibble: 21,551 x 10
    ##    carat cut   color clarity depth table price     x     y     z
    ##    <dbl> <ord> <ord> <ord>   <dbl> <dbl> <int> <dbl> <dbl> <dbl>
    ##  1 0.230 Ideal E     SI2      61.5   55.   326  3.95  3.98  2.43
    ##  2 0.230 Ideal J     VS1      62.8   56.   340  3.93  3.90  2.46
    ##  3 0.310 Ideal J     SI2      62.2   54.   344  4.35  4.37  2.71
    ##  4 0.300 Ideal I     SI2      62.0   54.   348  4.31  4.34  2.68
    ##  5 0.330 Ideal I     SI2      61.8   55.   403  4.49  4.51  2.78
    ##  6 0.330 Ideal I     SI2      61.2   56.   403  4.49  4.50  2.75
    ##  7 0.330 Ideal J     SI1      61.1   56.   403  4.49  4.55  2.76
    ##  8 0.230 Ideal G     VS1      61.9   54.   404  3.93  3.95  2.44
    ##  9 0.320 Ideal I     SI1      60.9   55.   404  4.45  4.48  2.72
    ## 10 0.300 Ideal I     SI2      61.0   59.   405  4.30  4.33  2.63
    ## # ... with 21,541 more rows

``` r
caratltwo <- diamonds %>%
          filter(carat <= 2)
caratltwo
```

    ## # A tibble: 52,051 x 10
    ##    carat cut       color clarity depth table price     x     y     z
    ##    <dbl> <ord>     <ord> <ord>   <dbl> <dbl> <int> <dbl> <dbl> <dbl>
    ##  1 0.230 Ideal     E     SI2      61.5   55.   326  3.95  3.98  2.43
    ##  2 0.210 Premium   E     SI1      59.8   61.   326  3.89  3.84  2.31
    ##  3 0.230 Good      E     VS1      56.9   65.   327  4.05  4.07  2.31
    ##  4 0.290 Premium   I     VS2      62.4   58.   334  4.20  4.23  2.63
    ##  5 0.310 Good      J     SI2      63.3   58.   335  4.34  4.35  2.75
    ##  6 0.240 Very Good J     VVS2     62.8   57.   336  3.94  3.96  2.48
    ##  7 0.240 Very Good I     VVS1     62.3   57.   336  3.95  3.98  2.47
    ##  8 0.260 Very Good H     SI1      61.9   55.   337  4.07  4.11  2.53
    ##  9 0.220 Fair      E     VS2      65.1   61.   337  3.87  3.78  2.49
    ## 10 0.230 Very Good H     VS1      59.4   61.   338  4.00  4.05  2.39
    ## # ... with 52,041 more rows
…
